{
  "development": {
    "username": "root",
    "password": "Boldness991998",
    "database": "advocatev",
    "host": "127.0.0.1",
    "dialect": "mysql"
  },
  "test": {
    "username": "root",
    "password": null,
    "database": "database_test",
    "host": "127.0.0.1",
    "dialect": "mysql"
  },
  "production": {
    "username":  "fu_remote",
    "password": "8B21ABB162E67008A9BD01CE41AB48F4770BB149D",
    "database": "advocateV",
    "host": "127.0.0.1",
    "dialect": "mysql"
  }
}
